{
  "href": "https://api.spotify.com/v1/playlists/37i9dQZF1DX0F4i7Q9pshJ/tracks?offset=0&limit=1&market=ES",
  "items": [
    {
      "added_at": "2018-09-17T03:09:34Z",
      "added_by": {
        "external_urls": {
          "spotify": "https://open.spotify.com/user/"
        },
        "href": "https://api.spotify.com/v1/users/",
        "id": "",
        "type": "user",
        "uri": "spotify:user:"
      },
      "is_local": false,
      "primary_color": null,
      "track": {
        "album": {
          "album_type": "single",
          "artists": [
            {
              "external_urls": {
                "spotify": "https://open.spotify.com/artist/60d24wfXkVzDSfLS6hyCjZ"
              },
              "href": "https://api.spotify.com/v1/artists/60d24wfXkVzDSfLS6hyCjZ",
              "id": "60d24wfXkVzDSfLS6hyCjZ",
              "name": "Martin Garrix",
              "type": "artist",
              "uri": "spotify:artist:60d24wfXkVzDSfLS6hyCjZ"
            },
            {
              "external_urls": {
                "spotify": "https://open.spotify.com/artist/7MFJyevu6jq0shwDuVLymu"
              },
              "href": "https://api.spotify.com/v1/artists/7MFJyevu6jq0shwDuVLymu",
              "id": "7MFJyevu6jq0shwDuVLymu",
              "name": "Justin Mylo",
              "type": "artist",
              "uri": "spotify:artist:7MFJyevu6jq0shwDuVLymu"
            }
          ],
          "external_urls": {
            "spotify": "https://open.spotify.com/album/3feYPmyPH7tqh1ZfsU0D0i"
          },
          "href": "https://api.spotify.com/v1/albums/3feYPmyPH7tqh1ZfsU0D0i",
          "id": "3feYPmyPH7tqh1ZfsU0D0i",
          "images": [
            {
              "height": 640,
              "url": "https://i.scdn.co/image/2fe16fb136a668cbe267583580eac0d228692c33",
              "width": 640
            },
            {
              "height": 300,
              "url": "https://i.scdn.co/image/bb1326c060ff75f7fbcf1c1ab345c4bbdf3fa85c",
              "width": 300
            },
            {
              "height": 64,
              "url": "https://i.scdn.co/image/ba619e78e9ec18dcb9b7dd132d02c2ec339c6451",
              "width": 64
            }
          ],
          "name": "Burn Out (feat. Dewain Whitmore)",
          "release_date": "2018-09-14",
          "release_date_precision": "day",
          "total_tracks": 1,
          "type": "album",
          "uri": "spotify:album:3feYPmyPH7tqh1ZfsU0D0i"
        },
        "artists": [
          {
            "external_urls": {
              "spotify": "https://open.spotify.com/artist/60d24wfXkVzDSfLS6hyCjZ"
            },
            "href": "https://api.spotify.com/v1/artists/60d24wfXkVzDSfLS6hyCjZ",
            "id": "60d24wfXkVzDSfLS6hyCjZ",
            "name": "Martin Garrix",
            "type": "artist",
            "uri": "spotify:artist:60d24wfXkVzDSfLS6hyCjZ"
          },
          {
            "external_urls": {
              "spotify": "https://open.spotify.com/artist/7MFJyevu6jq0shwDuVLymu"
            },
            "href": "https://api.spotify.com/v1/artists/7MFJyevu6jq0shwDuVLymu",
            "id": "7MFJyevu6jq0shwDuVLymu",
            "name": "Justin Mylo",
            "type": "artist",
            "uri": "spotify:artist:7MFJyevu6jq0shwDuVLymu"
          },
          {
            "external_urls": {
              "spotify": "https://open.spotify.com/artist/1E1W3to8HhGSkkIEUMwEjd"
            },
            "href": "https://api.spotify.com/v1/artists/1E1W3to8HhGSkkIEUMwEjd",
            "id": "1E1W3to8HhGSkkIEUMwEjd",
            "name": "Dewain Whitmore",
            "type": "artist",
            "uri": "spotify:artist:1E1W3to8HhGSkkIEUMwEjd"
          }
        ],
        "disc_number": 1,
        "duration_ms": 200322,
        "episode": false,
        "explicit": false,
        "external_ids": {
          "isrc": "NLM5S1800332"
        },
        "external_urls": {
          "spotify": "https://open.spotify.com/track/7IWTIkiWGWNQyYfOLdMrGD"
        },
        "href": "https://api.spotify.com/v1/tracks/7IWTIkiWGWNQyYfOLdMrGD",
        "id": "7IWTIkiWGWNQyYfOLdMrGD",
        "is_local": false,
        "is_playable": true,
        "name": "Burn Out (feat. Dewain Whitmore)",
        "popularity": 76,
        "preview_url": "https://p.scdn.co/mp3-preview/780e52f3d279615302d44fe723bef8c25ebfe1b1?cid=7588eb6b2f5048fba7abf68e04fd8cbe",
        "track": true,
        "track_number": 1,
        "type": "track",
        "uri": "spotify:track:7IWTIkiWGWNQyYfOLdMrGD"
      },
      "video_thumbnail": {
        "url": null
      }
    }
  ],
  "limit": 1,
  "next": "https://api.spotify.com/v1/playlists/37i9dQZF1DX0F4i7Q9pshJ/tracks?offset=1&limit=1&market=ES",
  "offset": 0,
  "previous": null,
  "total": 53
}
